<svg width="25" height="25" viewBox="0 0 25 25" fill="none" xmlns="http://www.w3.org/2000/svg">
<g opacity="0.9" clip-path="url(#clip0)">
<path d="M19.8287 14.6552C16.9765 14.6552 14.6562 16.9754 14.6562 19.8276C14.6562 22.6797 16.9765 25 19.8287 25C22.6808 25 25.0011 22.6797 25.0011 19.8276C25.0011 16.9754 22.6808 14.6552 19.8287 14.6552ZM19.8287 24.1379C17.4519 24.1379 15.5183 22.2043 15.5183 19.8276C15.5183 17.4509 17.4519 15.5172 19.8287 15.5172C22.2054 15.5172 24.139 17.4509 24.139 19.8276C24.139 22.2043 22.2054 24.1379 19.8287 24.1379Z" fill="#5D8CDA"/>
<path d="M22.4118 19.3966H20.2566V17.2414C20.2566 17.003 20.0639 16.8103 19.8256 16.8103C19.5872 16.8103 19.3945 17.003 19.3945 17.2414V19.8276C19.3945 20.0659 19.5872 20.2586 19.8256 20.2586H22.4118C22.6501 20.2586 22.8428 20.0659 22.8428 19.8276C22.8428 19.5892 22.6501 19.3966 22.4118 19.3966Z" fill="#5D8CDA"/>
<path d="M11.6363 9.05172H10.7742H7.757H6.89494H3.01562V12.931V13.7931V16.8103V17.6724V21.5517H6.89494H7.757H11.6363V17.6724V16.8103V13.7931H14.6536H15.5156H19.3949V9.05172H15.5156H14.6536H11.6363ZM15.5156 9.91379H18.5329V12.931H15.5156V9.91379ZM7.757 9.91379H10.7742V12.931H7.757V9.91379ZM3.87769 9.91379H6.89494V12.931H3.87769V9.91379ZM3.87769 13.7931H6.89494V16.8103H3.87769V13.7931ZM6.89494 20.6897H3.87769V17.6724H6.89494V20.6897ZM10.7742 20.6897H7.757V17.6724H10.7742V20.6897ZM10.7742 16.8103H7.757V13.7931H10.7742V16.8103ZM14.6536 12.931H11.6363V9.91379H14.6536V12.931Z" fill="#5D8CDA"/>
<path d="M14.2241 23.7069H0.862069V6.89655H21.5517V12.5C21.5517 12.7384 21.7444 12.931 21.9828 12.931C22.2211 12.931 22.4138 12.7384 22.4138 12.5V6.46552V2.15517C22.4138 1.91681 22.2211 1.72414 21.9828 1.72414H19.8276V0.431034C19.8276 0.192672 19.6349 0 19.3966 0H16.3793C16.1409 0 15.9483 0.192672 15.9483 0.431034V1.72414H6.46552V0.431034C6.46552 0.192672 6.27285 0 6.03448 0H3.01724C2.77888 0 2.58621 0.192672 2.58621 0.431034V1.72414H0.431035C0.192672 1.72414 0 1.91681 0 2.15517V6.46552V24.1379C0 24.3763 0.192672 24.569 0.431035 24.569H14.2241C14.4625 24.569 14.6552 24.3763 14.6552 24.1379C14.6552 23.8996 14.4625 23.7069 14.2241 23.7069ZM16.8103 0.862069H18.9655V2.15517V3.44828H16.8103V2.15517V0.862069ZM3.44828 0.862069H5.60345V2.15517V3.44828H3.44828V2.15517V0.862069ZM0.862069 2.58621H2.58621V3.87931C2.58621 4.11767 2.77888 4.31034 3.01724 4.31034H6.03448C6.27285 4.31034 6.46552 4.11767 6.46552 3.87931V2.58621H15.9483V3.87931C15.9483 4.11767 16.1409 4.31034 16.3793 4.31034H19.3966C19.6349 4.31034 19.8276 4.11767 19.8276 3.87931V2.58621H21.5517V6.03448H0.862069V2.58621Z" fill="#5D8CDA"/>
</g>
<defs>
<clipPath id="clip0">
<rect width="25" height="25" fill="white"/>
</clipPath>
</defs>
</svg>
