<?xml version="1.0"?>
<svg xmlns="http://www.w3.org/2000/svg" height="512px" viewBox="0 0 56 56" width="512px" class="hovered-paths"><g><g id="Page-1" fill="none" fill-rule="evenodd"><g id="013---Date-Calendar" fill="rgb(0,0,0)" fill-rule="nonzero"><path id="Shape" d="m8.5 25c4.274 0 7.811-2.613 8.4-6h-16.8c.589 3.387 4.126 6 8.4 6z" data-original="#000000" class="hovered-path active-path" data-old_color="#000000" fill="#FFFFFF"/><path id="Rectangle-path" d="m5 46h4v4h-4z" data-original="#000000" class="hovered-path active-path" data-old_color="#000000" fill="#FFFFFF"/><path id="Shape" d="m16.172 14.987c-.3559727-.6073507-.3559727-1.3596493 0-1.967.3629409-.6298712 1.0340463-1.0185864 1.761-1.02h30.067v-4c0-1.65685425-1.3431458-3-3-3h-1v1.5c0 1.93299662-1.5670034 3.5-3.5 3.5s-3.5-1.56700338-3.5-3.5v-1.5h-4v1.5c0 1.93299662-1.5670034 3.5-3.5 3.5s-3.5-1.56700338-3.5-3.5v-1.5h-4v1.5c0 1.93299662-1.5670034 3.5-3.5 3.5s-3.5-1.56700338-3.5-3.5v-1.5h-4v1.5c0 1.9329966-1.5670034 3.49999995-3.5 3.49999995s-3.49999997-1.56700335-3.5-3.49999995v-1.5h-1c-1.65685425 0-3 1.34314575-3 3v9h16.9c-.1211712-.7089154-.3676906-1.3905687-.728-2.013z" data-original="#000000" class="hovered-path active-path" data-old_color="#000000" fill="#FFFFFF"/><path id="Rectangle-path" d="m5 34h4v4h-4z" data-original="#000000" class="hovered-path active-path" data-old_color="#000000" fill="#FFFFFF"/><path id="Rectangle-path" d="m5 40h4v4h-4z" data-original="#000000" class="hovered-path active-path" data-old_color="#000000" fill="#FFFFFF"/><path id="Shape" d="m29.5 8c.8284271 0 1.5-.67157288 1.5-1.5v-5c0-.82842712-.6715729-1.5-1.5-1.5s-1.5.67157288-1.5 1.5v5c0 .82842712.6715729 1.5 1.5 1.5z" data-original="#000000" class="hovered-path active-path" data-old_color="#000000" fill="#FFFFFF"/><path id="Shape" d="m7.5 8c.82842712 0 1.5-.67157288 1.5-1.5v-5c0-.82842712-.67157288-1.5-1.5-1.5s-1.5.67157288-1.5 1.5v5c0 .82842712.67157288 1.5 1.5 1.5z" data-original="#000000" class="hovered-path active-path" data-old_color="#000000" fill="#FFFFFF"/><path id="Shape" d="m40.5 8c.8284271 0 1.5-.67157288 1.5-1.5v-5c0-.82842712-.6715729-1.5-1.5-1.5s-1.5.67157288-1.5 1.5v5c0 .82842712.6715729 1.5 1.5 1.5z" data-original="#000000" class="hovered-path active-path" data-old_color="#000000" fill="#FFFFFF"/><path id="Rectangle-path" d="m11 46h4v4h-4z" data-original="#000000" class="hovered-path active-path" data-old_color="#000000" fill="#FFFFFF"/><path id="Shape" d="m18.5 8c.8284271 0 1.5-.67157288 1.5-1.5v-5c0-.82842712-.6715729-1.5-1.5-1.5s-1.5.67157288-1.5 1.5v5c0 .82842712.6715729 1.5 1.5 1.5z" data-original="#000000" class="hovered-path active-path" data-old_color="#000000" fill="#FFFFFF"/><path id="Shape" d="m8.5 27c-3.2434201.0558935-6.3489857-1.3098246-8.5-3.738v30.738c0 1.1045695.8954305 2 2 2h44c1.1045695 0 2-.8954305 2-2v-27.016c-.165.006-.326.016-.5.016zm23.5 25h-27c-1.1045695 0-2-.8954305-2-2v-16c0-1.1045695.8954305-2 2-2h22c.5522847 0 1 .4477153 1 1s-.4477153 1-1 1h-4v4h1c.5522847 0 1 .4477153 1 1s-.4477153 1-1 1h-1v4h4c.5522847 0 1 .4477153 1 1s-.4477153 1-1 1h-4v4h9c.5522847 0 1 .4477153 1 1s-.4477153 1-1 1zm5.791-2.232c-.4821728.3098747-1.1008272.3098747-1.583 0-5.6-3.602-8.208-6.846-8.208-10.207 0-3.119 2.2-5.561 5-5.561 1.4887124.003063 2.9198545.5755198 4 1.6 1.0801455-1.0244802 2.5112876-1.596937 4-1.6 2.8 0 5 2.442 5 5.561 0 3.361-2.608 6.605-8.209 10.207z" data-original="#000000" class="hovered-path active-path" data-old_color="#000000" fill="#FFFFFF"/><path id="Rectangle-path" d="m17 34h4v4h-4z" data-original="#000000" class="hovered-path active-path" data-old_color="#000000" fill="#FFFFFF"/><path id="Shape" d="m41 36c-1.2532173.0138246-2.4253474.6221594-3.158 1.639-.1942737.2701076-.5062545.4307163-.8389691.4319039-.3327146.0011875-.645834-.15719-.8420309-.4259039-.7326408-1.0192061-1.9058858-1.6297686-3.161-1.645-1.71 0-3 1.531-3 3.561 0 2.529 2.291 5.258 7 8.336 4.71-3.079 7-5.807 7-8.336 0-2.03-1.29-3.561-3-3.561z" data-original="#000000" class="hovered-path active-path" data-old_color="#000000" fill="#FFFFFF"/><path id="Shape" d="m54.461 13.985-14.381.015h-22.147c.6964007 1.2182946 1.0640945 2.5967156 1.067 4-.066122 2.8374543-1.5319599 5.4583649-3.915 7h32.415c.4542438.0027577.9080929-.0273207 1.358-.09 4.142-.548 7.142-3.453 7.142-6.91-.0134609-1.4798637-.5598478-2.9052979-1.539-4.015z" data-original="#000000" class="hovered-path active-path" data-old_color="#000000" fill="#FFFFFF"/><path id="Rectangle-path" d="m17 46h4v4h-4z" data-original="#000000" class="hovered-path active-path" data-old_color="#000000" fill="#FFFFFF"/><path id="Rectangle-path" d="m17 40h4v4h-4z" data-original="#000000" class="hovered-path active-path" data-old_color="#000000" fill="#FFFFFF"/><path id="Rectangle-path" d="m11 34h4v4h-4z" data-original="#000000" class="hovered-path active-path" data-old_color="#000000" fill="#FFFFFF"/><path id="Rectangle-path" d="m11 40h4v4h-4z" data-original="#000000" class="hovered-path active-path" data-old_color="#000000" fill="#FFFFFF"/></g></g><script xmlns="" class="hovered-path active-path" style="">
  {
    const open = XMLHttpRequest.prototype.open;
    XMLHttpRequest.prototype.open = function (method, url) {
      open.apply(this, arguments);
      this.addEventListener('readystatechange', function _() {
        if(this.readyState == this.HEADERS_RECEIVED) {
          const contentType = this.getResponseHeader('Content-Type') || '';
          if (contentType.startsWith('video/') || contentType.startsWith('audio/')) {
            window.postMessage({
              source: 'xmlhttprequest-open',
              url,
              mime: contentType,
              method,
              contentType
            }, '*');
          }
          this.removeEventListener('readystatechange', _);
        }
      })
    }
  }
  </script></g> </svg>
