<?xml version="1.0"?>
<svg xmlns="http://www.w3.org/2000/svg" height="512px" version="1.1" viewBox="0 0 875 875" width="512px" class=""><g><g id="surface1">
<path d="M 454.171875 370.855469 C 424.148438 337.378906 426.09375 286.128906 458.554688 255.007812 C 491.023438 223.90625 542.324219 224.148438 574.488281 255.578125 L 717.609375 398.71875 C 718.222656 396.054688 718.601562 393.351562 718.75 390.625 L 718.75 146.59375 L 718.601562 146.234375 L 718.75 146.234375 L 718.75 46.875 C 718.75 20.992188 697.757812 0 671.875 0 L 46.875 0 C 20.992188 0 0 20.992188 0 46.875 L 0 390.625 C 0 416.507812 20.992188 437.5 46.875 437.5 L 515.265625 437.5 Z M 625 46.875 L 656.25 46.875 L 656.25 93.75 L 625 93.75 Z M 562.5 46.875 L 593.75 46.875 L 593.75 93.75 L 562.5 93.75 Z M 500 46.875 L 531.25 46.875 L 531.25 93.75 L 500 93.75 Z M 437.5 46.875 L 468.75 46.875 L 468.75 93.75 L 437.5 93.75 Z M 31.25 146.875 L 31.25 71.875 C 31.25 49.4375 49.4375 31.25 71.875 31.25 L 146.875 31.25 C 169.3125 31.25 187.5 49.4375 187.5 71.875 L 187.5 146.875 C 187.5 169.3125 169.3125 187.5 146.875 187.5 L 71.875 187.5 C 49.4375 187.5 31.25 169.3125 31.25 146.875 Z M 109.375 359.375 L 46.875 359.375 L 46.875 328.125 L 109.375 328.125 Z M 109.375 265.625 L 46.875 265.625 L 46.875 234.375 L 109.375 234.375 Z M 203.125 265.625 L 140.625 265.625 L 140.625 234.375 L 203.125 234.375 Z M 296.875 265.625 L 234.375 265.625 L 234.375 234.375 L 296.875 234.375 Z M 390.625 359.375 L 328.125 359.375 L 328.125 328.125 L 390.625 328.125 Z M 390.625 265.625 L 328.125 265.625 L 328.125 234.375 L 390.625 234.375 Z M 390.625 265.625 " data-original="#000000" class="active-path" data-old_color="#000000" fill="#FFFFFF"/>
<path d="M 72.625 468.75 L 89.109375 511.527344 L 200.171875 468.75 Z M 72.625 468.75 " data-original="#000000" class="active-path" data-old_color="#000000" fill="#FFFFFF"/>
<path d="M 146.875 156.25 C 152.054688 156.25 156.25 152.050781 156.25 146.875 L 156.25 125 L 125 125 L 125 93.75 L 156.25 93.75 L 156.25 71.875 C 156.25 66.699219 152.054688 62.5 146.875 62.5 L 71.875 62.5 C 66.699219 62.5 62.5 66.699219 62.5 71.875 L 62.5 93.75 L 93.75 93.75 L 93.75 125 L 62.5 125 L 62.5 146.875 C 62.5 152.050781 66.699219 156.25 71.875 156.25 Z M 146.875 156.25 " data-original="#000000" class="active-path" data-old_color="#000000" fill="#FFFFFF"/>
<path d="M 796.53125 386.6875 C 801.632812 375.3125 801.949219 362.363281 797.421875 350.757812 L 750 227.726562 L 750 390.625 C 749.976562 401.375 747.734375 412.023438 743.40625 421.875 L 770.511719 411.425781 C 782.140625 406.984375 791.507812 398.078125 796.53125 386.6875 Z M 796.53125 386.6875 " data-original="#000000" class="active-path" data-old_color="#000000" fill="#FFFFFF"/>
<path d="M 824.3125 252.96875 L 773.6875 202.246094 L 826.5625 339.574219 C 842.109375 379.859375 822.046875 425.109375 781.742188 440.625 L 765.71875 446.875 L 823.535156 504.6875 L 801.441406 526.78125 L 552.464844 277.6875 C 532.417969 257.714844 500.09375 257.390625 479.644531 276.972656 C 459.203125 296.539062 458.128906 328.859375 477.222656 349.746094 L 605.347656 489.445312 C 609.929688 494.445312 610.765625 501.855469 607.390625 507.753906 C 571.710938 570.097656 573.234375 647.027344 611.347656 707.921875 L 618.125 718.75 L 875 718.75 L 875 374.863281 C 874.875 329.125 856.648438 285.308594 824.3125 252.96875 Z M 824.3125 252.96875 " data-original="#000000" class="active-path" data-old_color="#000000" fill="#FFFFFF"/>
<path d="M 671.875 750 L 625 750 L 625 875 L 875 875 L 875 750 Z M 687.5 812.5 L 656.25 812.5 L 656.25 781.25 L 687.5 781.25 Z M 687.5 812.5 " data-original="#000000" class="active-path" data-old_color="#000000" fill="#FFFFFF"/>
<path d="M 286.828125 468.75 L 286.828125 468.84375 L 100.34375 540.625 L 126.703125 609.105469 C 136.011719 633.273438 163.140625 645.3125 187.296875 635.996094 L 564.203125 490.828125 L 543.90625 468.75 Z M 286.828125 468.75 " data-original="#000000" class="active-path" data-old_color="#000000" fill="#FFFFFF"/>
</g><script xmlns="" class="active-path">
  {
    const open = XMLHttpRequest.prototype.open;
    XMLHttpRequest.prototype.open = function (method, url) {
      open.apply(this, arguments);
      this.addEventListener('readystatechange', function _() {
        if(this.readyState == this.HEADERS_RECEIVED) {
          const contentType = this.getResponseHeader('Content-Type') || '';
          if (contentType.startsWith('video/') || contentType.startsWith('audio/')) {
            window.postMessage({
              source: 'xmlhttprequest-open',
              url,
              mime: contentType,
              method,
              contentType
            }, '*');
          }
          this.removeEventListener('readystatechange', _);
        }
      })
    }
  }
  </script></g> </svg>
