<svg width="65" height="55" viewBox="0 0 65 55" fill="none" xmlns="http://www.w3.org/2000/svg">
<path d="M59.5833 8.54168H46.0417V5.83325C46.0417 2.84591 43.6125 0.416534 40.625 0.416534H24.375C21.3877 0.416534 18.9583 2.84579 18.9583 5.83325V8.54155H5.41671C2.42925 8.54168 0 10.9709 0 13.9583V22.0833C0 25.0707 2.42925 27.5 5.41671 27.5H27.0834V26.1458C27.0834 25.3973 27.6891 24.7916 28.4376 24.7916H36.5626C37.3111 24.7916 37.9168 25.3973 37.9168 26.1458V27.5H59.5835C62.5708 27.5 65 25.0707 65 22.0833V13.9583C65 10.9709 62.5708 8.54168 59.5833 8.54168ZM40.625 8.54168H24.375V5.83325H40.625V8.54168Z" fill="white"/>
<path d="M64.2488 28.9611C63.7873 28.7324 63.2359 28.7853 62.8285 29.0947C61.8658 29.8234 60.7443 30.2082 59.5832 30.2082H37.9167V34.2707C37.9167 35.0192 37.311 35.6249 36.5625 35.6249H28.4375C27.689 35.6249 27.0833 35.0192 27.0833 34.2707V30.2082H5.41671C4.2556 30.2082 3.13422 29.8234 2.17141 29.0947C1.76274 28.7826 1.21266 28.7297 0.751055 28.9611C0.290977 29.19 0 29.6594 0 30.1739V49.1667C0 52.154 2.42925 54.5834 5.41671 54.5834H59.5834C62.5708 54.5834 65.0001 52.1542 65.0001 49.1667V30.1739C65 29.6594 64.709 29.19 64.2488 28.9611Z" fill="white"/>
</svg>
