<svg width="59" height="65" viewBox="0 0 59 65" fill="none" xmlns="http://www.w3.org/2000/svg">
<path d="M13.4775 11.5527H23.7875V1.11578L13.4775 11.5527Z" fill="white"/>
<path d="M58.0644 0H27.5957V15.3613H12.3613V22.9785C20.7616 22.9785 27.5957 29.8127 27.5957 38.2129C27.5957 42.0413 26.1278 45.5033 23.7871 48.1822V57.2559H58.0644V0ZM40.9258 22.9785C37.7758 22.9785 35.2129 20.4156 35.2129 17.2656C35.2129 14.7861 36.8097 12.6923 39.0215 11.9033V7.74414H42.8301V11.9033C45.0418 12.6923 46.6387 14.7861 46.6387 17.2656H42.8301C42.8301 16.2148 41.9766 15.3613 40.9258 15.3613C39.8749 15.3613 39.0215 16.2148 39.0215 17.2656C39.0215 18.3165 39.8749 19.1699 40.9258 19.1699C44.0758 19.1699 46.6387 21.7328 46.6387 24.8828C46.6387 27.3624 45.0418 29.4561 42.8301 30.2451V34.4043H39.0215V30.2451C36.8097 29.4561 35.2129 27.3624 35.2129 24.8828H39.0215C39.0215 25.9336 39.8749 26.7871 40.9258 26.7871C41.9766 26.7871 42.8301 25.9336 42.8301 24.8828C42.8301 23.832 41.9766 22.9785 40.9258 22.9785ZM50.4473 49.6387H31.4043V45.8301H50.4473V49.6387ZM50.4473 42.0215H31.4043V38.2129H50.4473V42.0215Z" fill="white"/>
<path d="M12.3613 36.3086C11.3105 36.3086 10.457 37.1621 10.457 38.2129C10.457 39.2637 11.3105 40.1172 12.3613 40.1172C13.4122 40.1172 14.2656 39.2637 14.2656 38.2129C14.2656 37.1621 13.4122 36.3086 12.3613 36.3086Z" fill="white"/>
<path d="M12.3613 26.7871C6.05087 26.7871 0.935547 31.9024 0.935547 38.2129C0.935547 44.5234 6.05087 49.6387 12.3613 49.6387C18.6718 49.6387 23.7871 44.5234 23.7871 38.2129C23.7871 31.9024 18.6718 26.7871 12.3613 26.7871ZM12.3613 43.9258C9.2113 43.9258 6.64844 41.3629 6.64844 38.2129C6.64844 35.0629 9.2113 32.5 12.3613 32.5C15.5114 32.5 18.0742 35.0629 18.0742 38.2129C18.0742 41.3629 15.5114 43.9258 12.3613 43.9258Z" fill="white"/>
<path d="M19.9785 51.3277C17.7286 52.6404 15.1483 53.4473 12.3613 53.4473C9.57431 53.4473 6.99409 52.6404 4.74414 51.3277V65L12.3613 61.1914L19.9785 65V51.3277Z" fill="white"/>
</svg>
