<svg width="45" height="45" viewBox="0 0 45 45" fill="none" xmlns="http://www.w3.org/2000/svg">
<g clip-path="url(#clip0)">
<path d="M9.31038 2.32761H7.75867V10.862H9.31038V2.32761Z" fill="#75462E"/>
<path d="M15.5173 2.32761H13.9656V10.862H15.5173V2.32761Z" fill="#75462E"/>
<path d="M9.31038 2.32761H7.75867V4.65521H9.31038V2.32761Z" fill="#5E3825"/>
<path d="M15.5173 2.32761H13.9656V4.65521H15.5173V2.32761Z" fill="#5E3825"/>
<path d="M6.98274 0H16.2931C17.1504 0 17.8448 0.694424 17.8448 1.55171C17.8448 2.40899 17.1504 3.10342 16.2931 3.10342H6.98274C6.12545 3.10342 5.43103 2.40899 5.43103 1.55171C5.43103 0.694424 6.12545 0 6.98274 0Z" fill="#4398D1"/>
<path d="M3.10342 10.0862H20.1724C21.8863 10.0862 23.2758 11.4758 23.2758 13.1897V38.0173C23.2758 39.7311 21.8863 41.1207 20.1724 41.1207H3.10342C1.38955 41.1207 0 39.7311 0 38.0173V13.1897C0 11.4758 1.38955 10.0862 3.10342 10.0862Z" fill="#4398D1"/>
<path d="M20.97 10.2026C17.6641 27.4298 6.4459 34.9285 0 37.8752V38.0172C0 39.731 1.38955 41.1206 3.10342 41.1206H20.1724C21.8863 41.1206 23.2758 39.731 23.2758 38.0172V13.1897C23.2735 11.7861 22.3269 10.5602 20.97 10.2026Z" fill="#3E8CC7"/>
<path d="M2.71554 45C3.78678 45 4.6552 44.1316 4.6552 43.0603C4.6552 41.9891 3.78678 41.1207 2.71554 41.1207C1.64429 41.1207 0.775879 41.9891 0.775879 43.0603C0.775879 44.1316 1.64429 45 2.71554 45Z" fill="#3E8CC7"/>
<path d="M10.0861 13.9656H8.53442V36.4656H10.0861V13.9656Z" fill="#126099"/>
<path d="M5.43098 13.9656H3.87927V36.4656H5.43098V13.9656Z" fill="#126099"/>
<path d="M14.7414 13.9656H13.1897V36.4656H14.7414V13.9656Z" fill="#126099"/>
<path d="M19.3964 13.9656H17.8447V36.4656H19.3964V13.9656Z" fill="#126099"/>
<path d="M20.5604 45C21.6316 45 22.5 44.1316 22.5 43.0603C22.5 41.9891 21.6316 41.1207 20.5604 41.1207C19.4891 41.1207 18.6207 41.9891 18.6207 43.0603C18.6207 44.1316 19.4891 45 20.5604 45Z" fill="#3E8CC7"/>
<path d="M45 22.5V38.0173C45 39.7311 43.6104 41.1207 41.8966 41.1207H14.7414C13.0275 41.1207 11.6379 39.7311 11.6379 38.0173V22.5C11.6379 20.7861 13.0275 19.3966 14.7414 19.3966H41.8966C43.6104 19.3966 45 20.7861 45 22.5Z" fill="#DE4C3C"/>
<path d="M34.9138 19.3966V16.2932C34.9138 14.5793 33.5243 13.1897 31.8104 13.1897H24.8277C23.1138 13.1897 21.7242 14.5793 21.7242 16.2932V19.3966H24.8277V16.2932H31.8104V19.3966H34.9138Z" fill="#75462E"/>
<path d="M14.3535 45C15.4247 45 16.2931 44.1316 16.2931 43.0603C16.2931 41.9891 15.4247 41.1207 14.3535 41.1207C13.2822 41.1207 12.4138 41.9891 12.4138 43.0603C12.4138 44.1316 13.2822 45 14.3535 45Z" fill="#DE4C3C"/>
<path d="M42.2845 45C43.3557 45 44.2242 44.1316 44.2242 43.0603C44.2242 41.9891 43.3557 41.1207 42.2845 41.1207C41.2133 41.1207 40.3448 41.9891 40.3448 43.0603C40.3448 44.1316 41.2133 45 42.2845 45Z" fill="#DE4C3C"/>
<path d="M6.98273 20.9483L0 24.0517V19.3966L5.43103 17.069L6.98273 20.9483Z" fill="#87CED9"/>
<path d="M43.7393 20.0173C38.1414 31.1586 22.4907 38.191 14.6638 41.113C14.6902 41.113 14.7151 41.1207 14.7414 41.1207H41.8966C43.6105 41.1207 45.0001 39.7311 45.0001 38.0173V22.5C44.9978 21.5193 44.5298 20.5976 43.7393 20.0173Z" fill="#CF4737"/>
<path d="M23.2759 27.931L27.1552 22.5L31.0344 27.931H23.2759Z" fill="#3E8CC7"/>
<path d="M18.6206 19.3966H15.5172V41.1207H18.6206V19.3966Z" fill="#75462E"/>
<path d="M41.1206 19.3966H38.0172V41.1207H41.1206V19.3966Z" fill="#75462E"/>
<path d="M39.028 30.5124C36.9925 29.8461 34.9104 30.6259 34.3775 32.2541C33.8445 33.8822 35.0625 35.7422 37.098 36.4085C39.1334 37.0748 41.2155 36.295 41.7485 34.6668C42.2814 33.0387 41.0634 31.1786 39.028 30.5124Z" fill="#87CED9"/>
<path d="M11.6379 26.3793V30.2586L19.3966 34.9138L20.9483 31.8103L11.6379 26.3793Z" fill="#FDB62F"/>
<path d="M40.559 31.3316C39.1245 33.0152 37.3539 34.38 35.3607 35.3389C35.8596 35.8191 36.4608 36.1807 37.1196 36.3956C39.1562 37.0621 41.2387 36.2823 41.7748 34.653C42.096 33.4009 41.6126 32.0803 40.559 31.3316Z" fill="#71C4D1"/>
</g>
<defs>
<clipPath id="clip0">
<rect width="45" height="45" fill="white"/>
</clipPath>
</defs>
</svg>
