<svg width="20" height="20" viewBox="0 0 20 20" fill="none" xmlns="http://www.w3.org/2000/svg">
<g id="visibility_24px">
<path id="icon/action/visibility_24px" fill-rule="evenodd" clip-rule="evenodd" d="M0.832031 10C2.2737 6.34167 5.83203 3.75 9.9987 3.75C14.1654 3.75 17.7237 6.34167 19.1654 10C17.7237 13.6583 14.1654 16.25 9.9987 16.25C5.83203 16.25 2.2737 13.6583 0.832031 10ZM17.3488 10C15.9738 7.19167 13.1571 5.41667 9.99875 5.41667C6.84042 5.41667 4.02375 7.19167 2.64875 10C4.02375 12.8083 6.84042 14.5833 9.99875 14.5833C13.1571 14.5833 15.9738 12.8083 17.3488 10ZM9.9987 7.91667C11.1487 7.91667 12.082 8.85 12.082 10C12.082 11.15 11.1487 12.0833 9.9987 12.0833C8.8487 12.0833 7.91536 11.15 7.91536 10C7.91536 8.85 8.8487 7.91667 9.9987 7.91667ZM6.2487 10C6.2487 7.93333 7.93203 6.25 9.9987 6.25C12.0654 6.25 13.7487 7.93333 13.7487 10C13.7487 12.0667 12.0654 13.75 9.9987 13.75C7.93203 13.75 6.2487 12.0667 6.2487 10Z" fill="#EEEEEE"/>
</g>
</svg>
